\relax 
\providecommand\hyper@newdestlabel[2]{}
\providecommand*\new@tpo@label[2]{}
\catcode `"\active 
\providecommand\HyperFirstAtBeginDocument{\AtBeginDocument}
\HyperFirstAtBeginDocument{\ifx\hyper@anchor\@undefined
\global\let\oldcontentsline\contentsline
\gdef\contentsline#1#2#3#4{\oldcontentsline{#1}{#2}{#3}}
\global\let\oldnewlabel\newlabel
\gdef\newlabel#1#2{\newlabelxx{#1}#2}
\gdef\newlabelxx#1#2#3#4#5#6{\oldnewlabel{#1}{{#2}{#3}}}
\AtEndDocument{\ifx\hyper@anchor\@undefined
\let\contentsline\oldcontentsline
\let\newlabel\oldnewlabel
\fi}
\fi}
\global\let\hyper@last\relax 
\gdef\HyperFirstAtBeginDocument#1{#1}
\providecommand\HyField@AuxAddToFields[1]{}
\providecommand\HyField@AuxAddToCoFields[2]{}
\providecommand\BKM@entry[2]{}
\abx@aux@refcontext{none/global//global/global}
\@writefile{toc}{\boolfalse {citerequest}\boolfalse {citetracker}\boolfalse {pagetracker}\boolfalse {backtracker}\relax }
\@writefile{lof}{\boolfalse {citerequest}\boolfalse {citetracker}\boolfalse {pagetracker}\boolfalse {backtracker}\relax }
\@writefile{lot}{\boolfalse {citerequest}\boolfalse {citetracker}\boolfalse {pagetracker}\boolfalse {backtracker}\relax }
\babel@aux{german}{}
\BKM@entry{id=1,dest={73656374696F6E2A2E32},srcline={99}}{416262696C64756E67737665727A656963686E6973}
\@writefile{toc}{\defcounter {refsection}{0}\relax }\@writefile{toc}{\contentsline {section}{Abbildungsverzeichnis}{B}{section*.2}\protected@file@percent }
\@input{Aufgabe1.aux}
\BKM@entry{id=2,dest={73656374696F6E2E31},srcline={1}}{417566676162653A2031}
\BKM@entry{id=3,dest={73756273656374696F6E2E312E31},srcline={4}}{4F7074696D696572756E677370726F626C656D}
\BKM@entry{id=4,dest={73756273656374696F6E2E312E32},srcline={22}}{4C5C33363673756E67732D416C676F726974686D7573}
\BKM@entry{id=5,dest={73756273656374696F6E2E312E33},srcline={31}}{4C5C33363673756E67}
\@input{Aufgabe2.aux}
\BKM@entry{id=6,dest={73656374696F6E2E32},srcline={1}}{417566676162653A2032}
\BKM@entry{id=7,dest={73756273656374696F6E2E322E31},srcline={4}}{4F7074696D696572756E677370726F626C656D}
\BKM@entry{id=8,dest={73756273656374696F6E2E322E32},srcline={25}}{4C5C33363673756E67732D416C676F726974686D7573}
\BKM@entry{id=9,dest={73756273656374696F6E2E322E33},srcline={31}}{4C5C33363673756E67}
\BKM@entry{id=10,dest={6669677572652E63617074696F6E2E37},srcline={113}}{416E68616E67}
\@writefile{toc}{\defcounter {refsection}{0}\relax }\@writefile{toc}{\contentsline {section}{Anhang}{8}{figure.caption.7}\protected@file@percent }
\@writefile{lof}{\defcounter {refsection}{0}\relax }\@writefile{lof}{\contentsline {figure}{\numberline {6}{\ignorespaces Optimierungsprobleme\relax }}{9}{figure.caption.8}\protected@file@percent }
\newlabel{fig:optimierungsprobleme}{{6}{9}{Optimierungsprobleme\relax }{figure.caption.8}{}}
\@writefile{lof}{\defcounter {refsection}{0}\relax }\@writefile{lof}{\contentsline {figure}{\numberline {7}{\ignorespaces Matlab-File Aufgabe 1\relax }}{10}{figure.caption.9}\protected@file@percent }
\newlabel{fig:matlab11}{{7}{10}{Matlab-File Aufgabe 1\relax }{figure.caption.9}{}}
\@writefile{lof}{\defcounter {refsection}{0}\relax }\@writefile{lof}{\contentsline {figure}{\numberline {8}{\ignorespaces Matlab-File Aufgabe 1\relax }}{11}{figure.caption.10}\protected@file@percent }
\newlabel{fig:matlab12}{{8}{11}{Matlab-File Aufgabe 1\relax }{figure.caption.10}{}}
\global\@namedef{scr@dte@section@lastmaxnumwidth}{10.84047pt}
\global\@namedef{scr@dte@subsection@lastmaxnumwidth}{18.37163pt}
\global\@namedef{scr@dte@figure@lastmaxnumwidth}{9.85495pt}
