\boolfalse {citerequest}\boolfalse {citetracker}\boolfalse {pagetracker}\boolfalse {backtracker}\relax 
\babel@toc {german}{}
\defcounter {refsection}{0}\relax 
\contentsline {section}{Abbildungsverzeichnis}{B}{section*.2}% 
\defcounter {refsection}{0}\relax 
\contentsline {section}{\numberline {1}Aufgabe: 1}{1}{section.1}% 
\defcounter {refsection}{0}\relax 
\contentsline {subsection}{\numberline {1.1}Optimierungsproblem}{1}{subsection.1.1}% 
\defcounter {refsection}{0}\relax 
\contentsline {subsection}{\numberline {1.2}L\IeC {\"o}sungs-Algorithmus}{2}{subsection.1.2}% 
\defcounter {refsection}{0}\relax 
\contentsline {subsection}{\numberline {1.3}L\IeC {\"o}sung}{2}{subsection.1.3}% 
\defcounter {refsection}{0}\relax 
\contentsline {section}{\numberline {2}Aufgabe: 2}{4}{section.2}% 
\defcounter {refsection}{0}\relax 
\contentsline {subsection}{\numberline {2.1}Optimierungsproblem}{4}{subsection.2.1}% 
\defcounter {refsection}{0}\relax 
\contentsline {subsection}{\numberline {2.2}L\IeC {\"o}sungs-Algorithmus}{5}{subsection.2.2}% 
\defcounter {refsection}{0}\relax 
\contentsline {subsection}{\numberline {2.3}L\IeC {\"o}sung}{5}{subsection.2.3}% 
\defcounter {refsection}{0}\relax 
\contentsline {section}{Anhang}{8}{figure.caption.7}% 
